<svg xmlns="http://www.w3.org/2000/svg" viewBox="0 0 263.75 274.17">
  <title>slime_to</title>
  <g>
    <path d="M420.62,13.4c-59.81,4.2,47,31-18.21,31" transform="translate(-292.39 -8.4)" fill="none" stroke="#000" stroke-linecap="round" stroke-width="10"/>
    <path d="M551.14,203.22c0,70.07-56.8,74.35-126.88,74.35s-126.88-4.28-126.88-74.35S354.19,40.79,424.26,40.79s126.88,92.36,126.88,162.43h0Z" transform="translate(-292.39 -8.4)" fill="#24d26a" stroke="#000" stroke-width="10"/>
    <path d="M424.26,40.79c-70.07,0-126.88,92.36-126.88,162.43,0,39.19,17.77,57.8,45.7,66.59a152.7,152.7,0,0,1-21.45-77.5C321.7,123,368.89,61.93,437.81,41.95A80.79,80.79,0,0,0,424.26,40.79Z" transform="translate(-292.39 -8.4)" fill="#fff" fill-opacity="0.36"/>
    <ellipse cx="465.83" cy="70.61" rx="8.53" ry="12.53" transform="translate(-98.76 446.77) rotate(-63.33)" fill="#656565" fill-opacity="0.57"/>
    <ellipse cx="464.98" cy="69.61" rx="8.53" ry="12.53" transform="translate(-98.34 445.46) rotate(-63.33)" fill="#fff" fill-opacity="0.57"/>
    <ellipse cx="488.75" cy="85.77" rx="3.96" ry="5.81" transform="translate(-99.68 475.6) rotate(-63.33)" fill="#656565" fill-opacity="0.57"/>
    <ellipse cx="488.35" cy="85.3" rx="3.96" ry="5.81" transform="translate(-99.48 474.99) rotate(-63.33)" fill="#fff" fill-opacity="0.57"/>
    <path d="M373.89,135.81l33.06,18H373.89" transform="translate(-292.39 -8.4)" fill="none" stroke="#fff" stroke-linecap="round" stroke-linejoin="round" stroke-opacity="0.51" stroke-width="10"/>
    <path d="M372.13,134.81l33.06,18H372.13" transform="translate(-292.39 -8.4)" fill="none" stroke="#000" stroke-linecap="round" stroke-linejoin="round" stroke-width="10"/>
    <path d="M477.65,135.81l-33.06,18h33.06" transform="translate(-292.39 -8.4)" fill="none" stroke="#fff" stroke-linecap="round" stroke-linejoin="round" stroke-opacity="0.43" stroke-width="10"/>
    <path d="M476.4,134.81l-33.06,18H476.4" transform="translate(-292.39 -8.4)" fill="none" stroke="#000" stroke-linecap="round" stroke-linejoin="round" stroke-width="10"/>
    <g>
      <path d="M447.08,209.74a21.85,21.85,0,0,1-43.7,0c0-12.07,9.78-9.73,21.85-9.73S447.08,197.67,447.08,209.74Z" transform="translate(-292.39 -8.4)" fill="#fff" fill-opacity="0.36"/>
      <path d="M445.15,209.31a21.85,21.85,0,0,1-43.7,0c0-12.07,9.78-9.73,21.85-9.73S445.15,197.24,445.15,209.31Z" transform="translate(-292.39 -8.4)"/>
      <path d="M423.79,216.47c-5.66,0-11.06,1.2-14.89,3.28a16.1,16.1,0,0,0,28.81-.49,33.4,33.4,0,0,0-13.92-2.79h0Z" transform="translate(-292.39 -8.4)" fill="#d42c2c"/>
    </g>
  </g>
</svg>
